{"failedCount":0,"prefixedPath":"classpath:featureFile\/queryApi.feature","packageQualifiedName":"featureFile.queryApi","loopIndex":-1,"relativePath":"featureFile\/queryApi.feature","scenarioResults":[{"sectionIndex":0,"stepResults":[{"result":{"nanos":2083100,"startTime":1753942915148,"endTime":1753942915150,"millis":2.0831,"status":"passed"},"step":{"background":true,"line":4,"prefix":"*","index":0,"text":"def username = 'Achari'"},"stepLog":"11:51:55.091 karate.env system property was: null \n"},{"result":{"nanos":1589300,"startTime":1753942915154,"endTime":1753942915156,"millis":1.5893,"status":"passed"},"step":{"background":true,"line":5,"prefix":"*","index":1,"text":"def status = 'active'"}},{"result":{"nanos":1426200,"startTime":1753942915155,"endTime":1753942915156,"millis":1.4262,"status":"passed"},"step":{"background":true,"line":6,"prefix":"*","index":2,"text":"def gender = 'male'"}},{"result":{"nanos":67825400,"startTime":1753942915157,"endTime":1753942915225,"millis":67.8254,"status":"passed"},"step":{"line":9,"prefix":"*","index":0,"text":"def query = {name: 'Achari'}"}},{"result":{"nanos":10625200,"startTime":1753942915225,"endTime":1753942915236,"millis":10.6252,"status":"passed"},"step":{"line":10,"prefix":"Given","index":1,"text":"url baseUrl + '\/public\/v1\/users'"}},{"result":{"nanos":10107200,"startTime":1753942915236,"endTime":1753942915246,"millis":10.1072,"status":"passed"},"step":{"line":11,"prefix":"And","index":2,"text":"params query"}},{"result":{"nanos":1451158900,"startTime":1753942915246,"endTime":1753942916697,"millis":1451.1589,"status":"passed"},"step":{"line":12,"prefix":"When","index":3,"text":"method GET"}},{"result":{"nanos":33200,"startTime":1753942916698,"endTime":1753942916698,"millis":0.0332,"status":"passed"},"step":{"line":13,"prefix":"Then","index":4,"text":"status 200"}},{"result":{"nanos":6812400,"startTime":1753942916698,"endTime":1753942916705,"millis":6.8124,"status":"passed"},"step":{"line":14,"prefix":"*","index":5,"text":"print response"},"stepLog":"11:51:56.704 [print] {\n  \"meta\": {\n    \"pagination\": {\n      \"total\": 33,\n      \"pages\": 4,\n      \"page\": 1,\n      \"limit\": 10,\n      \"links\": {\n        \"previous\": null,\n        \"current\": \"https:\/\/gorest.co.in\/public\/v1\/users?page=1\",\n        \"next\": \"https:\/\/gorest.co.in\/public\/v1\/users?page=2\"\n      }\n    }\n  },\n  \"data\": [\n    {\n      \"id\": 8037219,\n      \"name\": \"Saraswati Achari\",\n      \"email\": \"saraswati_achari@huels-bartell.test\",\n      \"gender\": \"female\",\n      \"status\": \"active\"\n    },\n    {\n      \"id\": 8036403,\n      \"name\": \"Usha Achari\",\n      \"email\": \"achari_usha@bosco.test\",\n      \"gender\": \"female\",\n      \"status\": \"active\"\n    },\n    {\n      \"id\": 8028364,\n      \"name\": \"Chandira Achari\",\n      \"email\": \"chandira_achari@johns.test\",\n      \"gender\": \"male\",\n      \"status\": \"inactive\"\n    },\n    {\n      \"id\": 8028361,\n      \"name\": \"Ramaa Achari\",\n      \"email\": \"achari_ramaa@orn.test\",\n      \"gender\": \"male\",\n      \"status\": \"active\"\n    },\n    {\n      \"id\": 8010499,\n      \"name\": \"Mukesh Achari\",\n      \"email\": \"achari_mukesh@dooley-bailey.example\",\n      \"gender\": \"male\",\n      \"status\": \"inactive\"\n    },\n    {\n      \"id\": 8010482,\n      \"name\": \"Charumati Achari\",\n      \"email\": \"achari_charumati@berge-greenholt.test\",\n      \"gender\": \"male\",\n      \"status\": \"inactive\"\n    },\n    {\n      \"id\": 7984700,\n      \"name\": \"Sharmila Achari\",\n      \"email\": \"achari_sharmila@green.test\",\n      \"gender\": \"male\",\n      \"status\": \"inactive\"\n    },\n    {\n      \"id\": 7921779,\n      \"name\": \"Kiran Achari\",\n      \"email\": \"achari_kiran@bergstrom.test\",\n      \"gender\": \"female\",\n      \"status\": \"inactive\"\n    },\n    {\n      \"id\": 7921767,\n      \"name\": \"Divakar Achari\",\n      \"email\": \"divakar_achari@kuhic.test\",\n      \"gender\": \"male\",\n      \"status\": \"inactive\"\n    },\n    {\n      \"id\": 7887640,\n      \"name\": \"Bhargavi Achari PhD\",\n      \"email\": \"achari_bhargavi_phd@thompson-murphy.test\",\n      \"gender\": \"male\",\n      \"status\": \"active\"\n    }\n  ]\n}\n \n"}],"executorName":"main","line":8,"name":"Fetch the user whose name contains 'Achari'","description":"","durationMillis":1551.6609,"startTime":1753942914741,"failed":false,"refId":"[1:8]","endTime":1753942916705,"exampleIndex":-1},{"sectionIndex":1,"stepResults":[{"result":{"nanos":1760100,"startTime":1753942916748,"endTime":1753942916750,"millis":1.7601,"status":"passed"},"step":{"background":true,"line":4,"prefix":"*","index":0,"text":"def username = 'Achari'"},"stepLog":"11:51:56.739 karate.env system property was: null \n"},{"result":{"nanos":1695800,"startTime":1753942916749,"endTime":1753942916751,"millis":1.6958,"status":"passed"},"step":{"background":true,"line":5,"prefix":"*","index":1,"text":"def status = 'active'"}},{"result":{"nanos":1945300,"startTime":1753942916751,"endTime":1753942916753,"millis":1.9453,"status":"passed"},"step":{"background":true,"line":6,"prefix":"*","index":2,"text":"def gender = 'male'"}},{"result":{"nanos":923600,"startTime":1753942916754,"endTime":1753942916755,"millis":0.9236,"status":"passed"},"step":{"line":18,"prefix":"*","index":0,"text":"def query = {name: 'Achari', status: 'active'}"}},{"result":{"nanos":1730700,"startTime":1753942916755,"endTime":1753942916757,"millis":1.7307,"status":"passed"},"step":{"line":19,"prefix":"Given","index":1,"text":"url baseUrl + '\/public\/v1\/users'"}},{"result":{"nanos":1221000,"startTime":1753942916756,"endTime":1753942916757,"millis":1.221,"status":"passed"},"step":{"line":20,"prefix":"And","index":2,"text":"params query"}},{"result":{"nanos":679727400,"startTime":1753942916758,"endTime":1753942917438,"millis":679.7274,"status":"passed"},"step":{"line":21,"prefix":"When","index":3,"text":"method GET"}},{"result":{"nanos":14500,"startTime":1753942917438,"endTime":1753942917438,"millis":0.0145,"status":"passed"},"step":{"line":22,"prefix":"Then","index":4,"text":"status 200"}},{"result":{"nanos":1552200,"startTime":1753942917438,"endTime":1753942917440,"millis":1.5522,"status":"passed"},"step":{"line":23,"prefix":"*","index":5,"text":"print response"},"stepLog":"11:51:57.439 [print] {\n  \"meta\": {\n    \"pagination\": {\n      \"total\": 13,\n      \"pages\": 2,\n      \"page\": 1,\n      \"limit\": 10,\n      \"links\": {\n        \"previous\": null,\n        \"current\": \"https:\/\/gorest.co.in\/public\/v1\/users?page=1\",\n        \"next\": \"https:\/\/gorest.co.in\/public\/v1\/users?page=2\"\n      }\n    }\n  },\n  \"data\": [\n    {\n      \"id\": 8037219,\n      \"name\": \"Saraswati Achari\",\n      \"email\": \"saraswati_achari@huels-bartell.test\",\n      \"gender\": \"female\",\n      \"status\": \"active\"\n    },\n    {\n      \"id\": 8036403,\n      \"name\": \"Usha Achari\",\n      \"email\": \"achari_usha@bosco.test\",\n      \"gender\": \"female\",\n      \"status\": \"active\"\n    },\n    {\n      \"id\": 8028361,\n      \"name\": \"Ramaa Achari\",\n      \"email\": \"achari_ramaa@orn.test\",\n      \"gender\": \"male\",\n      \"status\": \"active\"\n    },\n    {\n      \"id\": 7887640,\n      \"name\": \"Bhargavi Achari PhD\",\n      \"email\": \"achari_bhargavi_phd@thompson-murphy.test\",\n      \"gender\": \"male\",\n      \"status\": \"active\"\n    },\n    {\n      \"id\": 7876394,\n      \"name\": \"Keerti Achari\",\n      \"email\": \"keerti_achari@lemke.test\",\n      \"gender\": \"male\",\n      \"status\": \"active\"\n    },\n    {\n      \"id\": 7815249,\n      \"name\": \"Shakuntala Achari\",\n      \"email\": \"achari_shakuntala@schneider.example\",\n      \"gender\": \"male\",\n      \"status\": \"active\"\n    },\n    {\n      \"id\": 7784271,\n      \"name\": \"Abhisyanta Achari CPA\",\n      \"email\": \"cpa_abhisyanta_achari@mcdermott.test\",\n      \"gender\": \"female\",\n      \"status\": \"active\"\n    },\n    {\n      \"id\": 7764957,\n      \"name\": \"Jagdish Achari\",\n      \"email\": \"achari_jagdish@connelly.test\",\n      \"gender\": \"male\",\n      \"status\": \"active\"\n    },\n    {\n      \"id\": 7725913,\n      \"name\": \"Ramesh Achari\",\n      \"email\": \"achari_ramesh@lind.example\",\n      \"gender\": \"female\",\n      \"status\": \"active\"\n    },\n    {\n      \"id\": 7664199,\n      \"name\": \"Harinakshi Achari\",\n      \"email\": \"harinakshi_achari@parker.example\",\n      \"gender\": \"male\",\n      \"status\": \"active\"\n    }\n  ]\n}\n \n"}],"executorName":"main","line":17,"name":"Fetch the user whose name contains 'Achari' and status as active","description":"","durationMillis":690.5706,"startTime":1753942916731,"failed":false,"refId":"[2:17]","endTime":1753942917440,"exampleIndex":-1},{"sectionIndex":2,"stepResults":[{"result":{"nanos":857600,"startTime":1753942917455,"endTime":1753942917456,"millis":0.8576,"status":"passed"},"step":{"background":true,"line":4,"prefix":"*","index":0,"text":"def username = 'Achari'"},"stepLog":"11:51:57.452 karate.env system property was: null \n"},{"result":{"nanos":672100,"startTime":1753942917456,"endTime":1753942917457,"millis":0.6721,"status":"passed"},"step":{"background":true,"line":5,"prefix":"*","index":1,"text":"def status = 'active'"}},{"result":{"nanos":886400,"startTime":1753942917456,"endTime":1753942917457,"millis":0.8864,"status":"passed"},"step":{"background":true,"line":6,"prefix":"*","index":2,"text":"def gender = 'male'"}},{"result":{"nanos":3305900,"startTime":1753942917457,"endTime":1753942917460,"millis":3.3059,"status":"passed"},"step":{"line":28,"prefix":"*","index":0,"text":"def query = { name: '#(username)', gender: '#(gender)' }"}},{"result":{"nanos":673100,"startTime":1753942917461,"endTime":1753942917462,"millis":0.6731,"status":"passed"},"step":{"line":29,"prefix":"Given","index":1,"text":"url baseUrl + '\/public\/v1\/users'"}},{"result":{"nanos":573600,"startTime":1753942917461,"endTime":1753942917462,"millis":0.5736,"status":"passed"},"step":{"line":30,"prefix":"And","index":2,"text":"params query"}},{"result":{"nanos":480462300,"startTime":1753942917463,"endTime":1753942917943,"millis":480.4623,"status":"passed"},"step":{"line":31,"prefix":"When","index":3,"text":"method GET"}},{"result":{"nanos":10000,"startTime":1753942917943,"endTime":1753942917943,"millis":0.01,"status":"passed"},"step":{"line":32,"prefix":"Then","index":4,"text":"status 200"}},{"result":{"nanos":1260700,"startTime":1753942917943,"endTime":1753942917944,"millis":1.2607,"status":"passed"},"step":{"line":33,"prefix":"*","index":5,"text":"print response"},"stepLog":"11:51:57.945 [print] {\n  \"meta\": {\n    \"pagination\": {\n      \"total\": 19,\n      \"pages\": 2,\n      \"page\": 1,\n      \"limit\": 10,\n      \"links\": {\n        \"previous\": null,\n        \"current\": \"https:\/\/gorest.co.in\/public\/v1\/users?page=1\",\n        \"next\": \"https:\/\/gorest.co.in\/public\/v1\/users?page=2\"\n      }\n    }\n  },\n  \"data\": [\n    {\n      \"id\": 8028364,\n      \"name\": \"Chandira Achari\",\n      \"email\": \"chandira_achari@johns.test\",\n      \"gender\": \"male\",\n      \"status\": \"inactive\"\n    },\n    {\n      \"id\": 8028361,\n      \"name\": \"Ramaa Achari\",\n      \"email\": \"achari_ramaa@orn.test\",\n      \"gender\": \"male\",\n      \"status\": \"active\"\n    },\n    {\n      \"id\": 8010499,\n      \"name\": \"Mukesh Achari\",\n      \"email\": \"achari_mukesh@dooley-bailey.example\",\n      \"gender\": \"male\",\n      \"status\": \"inactive\"\n    },\n    {\n      \"id\": 8010482,\n      \"name\": \"Charumati Achari\",\n      \"email\": \"achari_charumati@berge-greenholt.test\",\n      \"gender\": \"male\",\n      \"status\": \"inactive\"\n    },\n    {\n      \"id\": 7984700,\n      \"name\": \"Sharmila Achari\",\n      \"email\": \"achari_sharmila@green.test\",\n      \"gender\": \"male\",\n      \"status\": \"inactive\"\n    },\n    {\n      \"id\": 7921767,\n      \"name\": \"Divakar Achari\",\n      \"email\": \"divakar_achari@kuhic.test\",\n      \"gender\": \"male\",\n      \"status\": \"inactive\"\n    },\n    {\n      \"id\": 7887640,\n      \"name\": \"Bhargavi Achari PhD\",\n      \"email\": \"achari_bhargavi_phd@thompson-murphy.test\",\n      \"gender\": \"male\",\n      \"status\": \"active\"\n    },\n    {\n      \"id\": 7876394,\n      \"name\": \"Keerti Achari\",\n      \"email\": \"keerti_achari@lemke.test\",\n      \"gender\": \"male\",\n      \"status\": \"active\"\n    },\n    {\n      \"id\": 7876362,\n      \"name\": \"Shivakari Achari\",\n      \"email\": \"shivakari_achari@bartell-beier.example\",\n      \"gender\": \"male\",\n      \"status\": \"inactive\"\n    },\n    {\n      \"id\": 7876318,\n      \"name\": \"Ganapati Achari\",\n      \"email\": \"achari_ganapati@cormier.test\",\n      \"gender\": \"male\",\n      \"status\": \"inactive\"\n    }\n  ]\n}\n \n"}],"executorName":"main","line":27,"name":"Fetch the user with name and gender","description":"","durationMillis":488.7017,"startTime":1753942917452,"failed":false,"refId":"[3:27]","endTime":1753942917945,"exampleIndex":-1},{"sectionIndex":3,"stepResults":[{"result":{"nanos":799100,"startTime":1753942917961,"endTime":1753942917962,"millis":0.7991,"status":"passed"},"step":{"background":true,"line":4,"prefix":"*","index":0,"text":"def username = 'Achari'"},"stepLog":"11:51:57.958 karate.env system property was: null \n"},{"result":{"nanos":976800,"startTime":1753942917961,"endTime":1753942917962,"millis":0.9768,"status":"passed"},"step":{"background":true,"line":5,"prefix":"*","index":1,"text":"def status = 'active'"}},{"result":{"nanos":791400,"startTime":1753942917963,"endTime":1753942917964,"millis":0.7914,"status":"passed"},"step":{"background":true,"line":6,"prefix":"*","index":2,"text":"def gender = 'male'"}},{"result":{"nanos":1122000,"startTime":1753942917964,"endTime":1753942917965,"millis":1.122,"status":"passed"},"step":{"line":38,"prefix":"*","index":0,"text":"def query = {name: 'Achari'}"}},{"result":{"nanos":756300,"startTime":1753942917965,"endTime":1753942917966,"millis":0.7563,"status":"passed"},"step":{"line":39,"prefix":"Given","index":1,"text":"url baseUrl + '\/public\/v1\/users'"}},{"result":{"nanos":773800,"startTime":1753942917966,"endTime":1753942917967,"millis":0.7738,"status":"passed"},"step":{"line":40,"prefix":"And","index":2,"text":"params query"}},{"result":{"nanos":595044700,"startTime":1753942917967,"endTime":1753942918562,"millis":595.0447,"status":"passed"},"step":{"line":41,"prefix":"When","index":3,"text":"method GET"}},{"result":{"nanos":16100,"startTime":1753942918562,"endTime":1753942918562,"millis":0.0161,"status":"passed"},"step":{"line":42,"prefix":"Then","index":4,"text":"status 200"}},{"result":{"nanos":1256000,"startTime":1753942918562,"endTime":1753942918563,"millis":1.256,"status":"passed"},"step":{"line":43,"prefix":"*","index":5,"text":"print response"},"stepLog":"11:51:58.563 [print] {\n  \"meta\": {\n    \"pagination\": {\n      \"total\": 33,\n      \"pages\": 4,\n      \"page\": 1,\n      \"limit\": 10,\n      \"links\": {\n        \"previous\": null,\n        \"current\": \"https:\/\/gorest.co.in\/public\/v1\/users?page=1\",\n        \"next\": \"https:\/\/gorest.co.in\/public\/v1\/users?page=2\"\n      }\n    }\n  },\n  \"data\": [\n    {\n      \"id\": 8037219,\n      \"name\": \"Saraswati Achari\",\n      \"email\": \"saraswati_achari@huels-bartell.test\",\n      \"gender\": \"female\",\n      \"status\": \"active\"\n    },\n    {\n      \"id\": 8036403,\n      \"name\": \"Usha Achari\",\n      \"email\": \"achari_usha@bosco.test\",\n      \"gender\": \"female\",\n      \"status\": \"active\"\n    },\n    {\n      \"id\": 8028364,\n      \"name\": \"Chandira Achari\",\n      \"email\": \"chandira_achari@johns.test\",\n      \"gender\": \"male\",\n      \"status\": \"inactive\"\n    },\n    {\n      \"id\": 8028361,\n      \"name\": \"Ramaa Achari\",\n      \"email\": \"achari_ramaa@orn.test\",\n      \"gender\": \"male\",\n      \"status\": \"active\"\n    },\n    {\n      \"id\": 8010499,\n      \"name\": \"Mukesh Achari\",\n      \"email\": \"achari_mukesh@dooley-bailey.example\",\n      \"gender\": \"male\",\n      \"status\": \"inactive\"\n    },\n    {\n      \"id\": 8010482,\n      \"name\": \"Charumati Achari\",\n      \"email\": \"achari_charumati@berge-greenholt.test\",\n      \"gender\": \"male\",\n      \"status\": \"inactive\"\n    },\n    {\n      \"id\": 7984700,\n      \"name\": \"Sharmila Achari\",\n      \"email\": \"achari_sharmila@green.test\",\n      \"gender\": \"male\",\n      \"status\": \"inactive\"\n    },\n    {\n      \"id\": 7921779,\n      \"name\": \"Kiran Achari\",\n      \"email\": \"achari_kiran@bergstrom.test\",\n      \"gender\": \"female\",\n      \"status\": \"inactive\"\n    },\n    {\n      \"id\": 7921767,\n      \"name\": \"Divakar Achari\",\n      \"email\": \"divakar_achari@kuhic.test\",\n      \"gender\": \"male\",\n      \"status\": \"inactive\"\n    },\n    {\n      \"id\": 7887640,\n      \"name\": \"Bhargavi Achari PhD\",\n      \"email\": \"achari_bhargavi_phd@thompson-murphy.test\",\n      \"gender\": \"male\",\n      \"status\": \"active\"\n    }\n  ]\n}\n \n"},{"result":{"nanos":7052100,"startTime":1753942918563,"endTime":1753942918570,"millis":7.0521,"status":"passed"},"step":{"comments":["# Way one to find total count  - using lenght func"],"line":45,"prefix":"*","index":6,"text":"def totalCount1 = response.data.length"}},{"result":{"nanos":1965200,"startTime":1753942918569,"endTime":1753942918571,"millis":1.9652,"status":"passed"},"step":{"line":46,"prefix":"*","index":7,"text":"print 'Total count 1: ',  totalCount1"},"stepLog":"11:51:58.572 [print] Total count 1:  10 \n"},{"result":{"nanos":1584800,"startTime":1753942918573,"endTime":1753942918575,"millis":1.5848,"status":"passed"},"step":{"comments":["# Way Two to find total count  - using json attribute iteself"],"line":48,"prefix":"*","index":8,"text":"def totalCount2 = response.meta.pagination.total"}},{"result":{"nanos":1812100,"startTime":1753942918574,"endTime":1753942918576,"millis":1.8121,"status":"passed"},"step":{"line":49,"prefix":"*","index":9,"text":"print 'Total count 2: ',  totalCount2"},"stepLog":"11:51:58.576 [print] Total count 2:  33 \n"}],"executorName":"main","line":37,"name":"Fetch the user whose name contains 'Achari' and find the total counts","description":"","durationMillis":613.9504,"startTime":1753942917956,"failed":false,"refId":"[4:37]","endTime":1753942918576,"exampleIndex":-1}],"callDepth":0,"name":"Query the URL","description":"","resultDate":"2025-07-31 11:51:58 am","durationMillis":3344.8836,"passedCount":4}