{"failedCount":1,"prefixedPath":"classpath:featureFile\/getResponseApi.feature","packageQualifiedName":"featureFile.getResponseApi","loopIndex":-1,"relativePath":"featureFile\/getResponseApi.feature","scenarioResults":[{"sectionIndex":0,"stepResults":[{"result":{"nanos":3412800,"startTime":1753938607071,"endTime":1753938607074,"millis":3.4128,"status":"passed"},"step":{"background":true,"line":4,"prefix":"*","index":0,"text":"def userID = '8037230'"},"stepLog":"10:40:06.996 karate.env system property was: null \n"},{"result":{"nanos":1201700,"startTime":1753938607085,"endTime":1753938607086,"millis":1.2017,"status":"passed"},"step":{"line":35,"prefix":"Given","index":0,"text":"url 'https:\/\/gorest.co.in\/public\/v1\/users'"}},{"result":{"nanos":1413534300,"startTime":1753938607085,"endTime":1753938608499,"millis":1413.5343,"status":"passed"},"step":{"line":36,"prefix":"When","index":1,"text":"method GET"}},{"result":{"nanos":34500,"startTime":1753938608495,"endTime":1753938608495,"millis":0.0345,"status":"passed"},"step":{"line":37,"prefix":"Then","index":2,"text":"status 200"}},{"result":{"nanos":14291300,"startTime":1753938608495,"endTime":1753938608509,"millis":14.2913,"status":"passed"},"step":{"line":38,"prefix":"*","index":3,"text":"print response"},"stepLog":"10:40:08.512 [print] {\n  \"meta\": {\n    \"pagination\": {\n      \"total\": 2919,\n      \"pages\": 292,\n      \"page\": 1,\n      \"limit\": 10,\n      \"links\": {\n        \"previous\": null,\n        \"current\": \"https:\/\/gorest.co.in\/public\/v1\/users?page=1\",\n        \"next\": \"https:\/\/gorest.co.in\/public\/v1\/users?page=2\"\n      }\n    }\n  },\n  \"data\": [\n    {\n      \"id\": 8037220,\n      \"name\": \"Arnesh Kaul\",\n      \"email\": \"kaul_arnesh@heller-reilly.test\",\n      \"gender\": \"female\",\n      \"status\": \"inactive\"\n    },\n    {\n      \"id\": 8037219,\n      \"name\": \"Saraswati Achari\",\n      \"email\": \"saraswati_achari@huels-bartell.test\",\n      \"gender\": \"female\",\n      \"status\": \"active\"\n    },\n    {\n      \"id\": 8037218,\n      \"name\": \"Prof. Pramila Iyer\",\n      \"email\": \"pramila_prof_iyer@hoppe-bartell.test\",\n      \"gender\": \"female\",\n      \"status\": \"inactive\"\n    },\n    {\n      \"id\": 8037217,\n      \"name\": \"Miss Ananda Tagore\",\n      \"email\": \"tagore_ananda_miss@erdman.test\",\n      \"gender\": \"male\",\n      \"status\": \"inactive\"\n    },\n    {\n      \"id\": 8037216,\n      \"name\": \"Shrishti Prajapat III\",\n      \"email\": \"prajapat_iii_shrishti@ward.test\",\n      \"gender\": \"male\",\n      \"status\": \"inactive\"\n    },\n    {\n      \"id\": 8037215,\n      \"name\": \"Deven Banerjee\",\n      \"email\": \"banerjee_deven@macejkovic.example\",\n      \"gender\": \"female\",\n      \"status\": \"inactive\"\n    },\n    {\n      \"id\": 8037214,\n      \"name\": \"Atreyi Chopra\",\n      \"email\": \"chopra_atreyi@will-schimmel.example\",\n      \"gender\": \"female\",\n      \"status\": \"inactive\"\n    },\n    {\n      \"id\": 8037213,\n      \"name\": \"Brijesh Shukla CPA\",\n      \"email\": \"cpa_shukla_brijesh@white.example\",\n      \"gender\": \"male\",\n      \"status\": \"active\"\n    },\n    {\n      \"id\": 8037212,\n      \"name\": \"Rageswari Rana IV\",\n      \"email\": \"rana_rageswari_iv@kihn.test\",\n      \"gender\": \"male\",\n      \"status\": \"active\"\n    },\n    {\n      \"id\": 8037211,\n      \"name\": \"Opalina Varrier MD\",\n      \"email\": \"md_varrier_opalina@gottlieb.test\",\n      \"gender\": \"female\",\n      \"status\": \"active\"\n    }\n  ]\n}\n \n"},{"result":{"nanos":7405200,"startTime":1753938608512,"endTime":1753938608519,"millis":7.4052,"status":"passed"},"step":{"line":39,"prefix":"*","index":4,"text":"print TotalUserCounts = response.meta.pagination.total"},"stepLog":"10:40:08.518 [print] 2919 \n"},{"result":{"nanos":3516600,"startTime":1753938608518,"endTime":1753938608522,"millis":3.5166,"status":"passed"},"step":{"line":40,"prefix":"*","index":5,"text":"print nextLink = response.meta.pagination.links.next"},"stepLog":"10:40:08.518 [print] https:\/\/gorest.co.in\/public\/v1\/users?page=2 \n"},{"result":{"nanos":32969300,"errorMessage":"js failed:\n>>>>\n01: karate.log('[print]',previousLink = response.meta.pagination.links[0]\t\t\t# or response.meta.pagination.links.previous   - we can use attribute name or indexing)\n<<<<\norg.graalvm.polyglot.PolyglotException: SyntaxError: Unnamed:1:72 Expected , but found error\r\nkarate.log('[print]',previousLink = response.meta.pagination.links[0]\t\t\t# or response.meta.pagination.links.previous   - we can use attribute name or indexing)\r\n                                                                     \t\t\t^\n\n- org.graalvm.polyglot.Context.eval(Context.java:425)\n- com.intuit.karate.graal.JsEngine.evalForValue(JsEngine.java:169)\n- com.intuit.karate.graal.JsEngine.eval(JsEngine.java:165)\n- com.intuit.karate.core.ScenarioEngine.evalJs(ScenarioEngine.java:1286)\n- com.intuit.karate.core.ScenarioEngine.print(ScenarioEngine.java:250)\n- com.intuit.karate.ScenarioActions.print(ScenarioActions.java:297)\n- java.base\/jdk.internal.reflect.NativeMethodAccessorImpl.invoke0(Native Method)\n\nclasspath:featureFile\/getResponseApi.feature:41","startTime":1753938608518,"endTime":1753938608551,"millis":32.9693,"status":"failed"},"step":{"line":41,"prefix":"*","index":6,"text":"print previousLink = response.meta.pagination.links[0]\t\t\t# or response.meta.pagination.links.previous   - we can use attribute name or indexing"},"stepLog":"10:40:08.557 classpath:featureFile\/getResponseApi.feature:41\n* print previousLink = response.meta.pagination.links[0]\t\t\t# or response.meta.pagination.links.previous   - we can use attribute name or indexing\njs failed:\n>>>>\n01: karate.log('[print]',previousLink = response.meta.pagination.links[0]\t\t\t# or response.meta.pagination.links.previous   - we can use attribute name or indexing)\n<<<<\norg.graalvm.polyglot.PolyglotException: SyntaxError: Unnamed:1:72 Expected , but found error\r\nkarate.log('[print]',previousLink = response.meta.pagination.links[0]\t\t\t# or response.meta.pagination.links.previous   - we can use attribute name or indexing)\r\n                                                                     \t\t\t^\n\n- org.graalvm.polyglot.Context.eval(Context.java:425)\n- com.intuit.karate.graal.JsEngine.evalForValue(JsEngine.java:169)\n- com.intuit.karate.graal.JsEngine.eval(JsEngine.java:165)\n- com.intuit.karate.core.ScenarioEngine.evalJs(ScenarioEngine.java:1286)\n- com.intuit.karate.core.ScenarioEngine.print(ScenarioEngine.java:250)\n- com.intuit.karate.ScenarioActions.print(ScenarioActions.java:297)\n- java.base\/jdk.internal.reflect.NativeMethodAccessorImpl.invoke0(Native Method)\n\nclasspath:featureFile\/getResponseApi.feature:41\n"},{"result":{"nanos":0,"startTime":1753938608557,"endTime":1753938608557,"millis":0.0,"status":"skipped"},"step":{"line":42,"prefix":"*","index":7,"text":"print 'Total User Counts: ', TotalUserCounts, ' Next Page Link: ', nextLink, ' Previous Link: ', previousLink"}}],"line":34,"description":"","durationMillis":1476.3657,"failed":true,"error":"js failed:\n>>>>\n01: karate.log('[print]',previousLink = response.meta.pagination.links[0]\t\t\t# or response.meta.pagination.links.previous   - we can use attribute name or indexing)\n<<<<\norg.graalvm.polyglot.PolyglotException: SyntaxError: Unnamed:1:72 Expected , but found error\r\nkarate.log('[print]',previousLink = response.meta.pagination.links[0]\t\t\t# or response.meta.pagination.links.previous   - we can use attribute name or indexing)\r\n                                                                     \t\t\t^\n\n- org.graalvm.polyglot.Context.eval(Context.java:425)\n- com.intuit.karate.graal.JsEngine.evalForValue(JsEngine.java:169)\n- com.intuit.karate.graal.JsEngine.eval(JsEngine.java:165)\n- com.intuit.karate.core.ScenarioEngine.evalJs(ScenarioEngine.java:1286)\n- com.intuit.karate.core.ScenarioEngine.print(ScenarioEngine.java:250)\n- com.intuit.karate.ScenarioActions.print(ScenarioActions.java:297)\n- java.base\/jdk.internal.reflect.NativeMethodAccessorImpl.invoke0(Native Method)\n\nclasspath:featureFile\/getResponseApi.feature:41","executorName":"main","name":"Get All User Details - fetch the total user counts and next link - nested json","startTime":1753938606694,"refId":"[1:34]","endTime":1753938608561,"exampleIndex":-1}],"callDepth":0,"name":"GET api call","description":"","resultDate":"2025-07-31 10:40:08 am","durationMillis":1476.3657,"passedCount":0}